Import Apple Health Data • health2R
…
saveRDS(parsed_data,"../dev/data/parsed_healthdata_mp.rds")

Exploring

Note: remove “../” when in VS code, use ../ when in RStudio

parsed_data <- 
  readRDS("../dev/data/parsed_healthdata_mp.rds")

parsed_data %>% 
  head(25)

## # A tibble: 25 × 9
##    type                sourceName sourceVersion unit  device startDate          
##    <chr>               <chr>      <chr>         <chr> <chr>  <dttm>             
##  1 HKQuantityTypeIden… Health     14.7.1        cm    NA     2021-09-08 05:10:14
##  2 HKQuantityTypeIden… Health     14.7.1        kg    NA     2021-09-08 05:10:14
##  3 HKQuantityTypeIden… Mariana ’… 8.1           coun… <<HKD… 2022-03-28 05:55:33
##  4 HKQuantityTypeIden… Mariana ’… 8.1           coun… <<HKD… 2022-03-28 05:56:57
##  5 HKQuantityTypeIden… Mariana ’… 8.1           coun… <<HKD… 2022-03-28 05:53:48
##  6 HKQuantityTypeIden… Mariana ’… 8.1           coun… <<HKD… 2022-03-28 05:58:41
##  7 HKQuantityTypeIden… Mariana ’… 8.1           coun… <<HKD… 2022-03-28 06:05:40
##  8 HKQuantityTypeIden… Mariana ’… 8.1           coun… <<HKD… 2022-03-28 06:10:28
##  9 HKQuantityTypeIden… Mariana ’… 8.1           coun… <<HKD… 2022-03-28 06:15:14
## 10 HKQuantityTypeIden… Mariana ’… 8.1           coun… <<HKD… 2022-03-28 06:16:58
## # ℹ 15 more rows
## # ℹ 3 more variables: endDate <dttm>, creationDate <dttm>, value <chr>
…
